{
  "NUM_BANKS":      8,
  "NUM_ROWS":       16384,
  "NUM_COLS":       1024,
  "DEVICE_WIDTH":   8,

  "REFRESH_PERIOD": 7800,
  "tCK":            3.0,

  "CL":    4,
  "AL":    0,
  "BL":    4,
  "tRAS":  14,
  "tRCD":  4,
  "tRRD":  3,
  "tRC":   18,
  "tRP":   4,
  "tCCD":  2,
  "tRTP":  3,
  "tWTR":  3,
  "tWR":   5,
  "tRTRS": 1,
  "tRFC":  43,
  "tFAW":  13,
  "tCKE":  3,
  "tXP":   2,

  "tCMD":  1,

  "IDD0":   85,
  "IDD1":   100,
  "IDD2P":  7,
  "IDD2Q":  40,
  "IDD2N":  40,
  "IDD3Pf": 30,
  "IDD3Ps": 10,
  "IDD3N":  55,
  "IDD4W":  135,
  "IDD4R":  135,
  "IDD5":   215,
  "IDD6":   7,
  "IDD6L":  5,
  "IDD7":   280,
  "Vdd":    1.8
}
