{
  "NUM_BANKS": 8,
  "NUM_ROWS": 16384,
  "NUM_COLS": 2048,
  "DEVICE_WIDTH": 4,

  "REFRESH_PERIOD": 7800,
  "tCK": 2.5,

  "CL": 5,
  "AL": 0,

  "BL": 4,
  "tRAS": 18,
  "tRCD": 5,
  "tRRD": 3,
  "tRC": 23,
  "tRP": 5,
  "tCCD": 2,
  "tRTP": 3,
  "tWTR": 3,
  "tWR": 6,
  "tRTRS": 1,
  "tRFC": 51,
  "tFAW": 14,
  "tCKE": 3,
  "tXP": 2,

  "tCMD": 1,

  "IDD0": 90,
  "IDD1": 110,
  "IDD2P": 7,
  "IDD2Q": 45,
  "IDD2N": 50,
  "IDD3Pf": 35,
  "IDD3Ps": 12,
  "IDD3N": 60,
  "IDD4W": 145,
  "IDD4R": 145,
  "IDD5": 235,
  "IDD6": 7,
  "IDD6L": 3,
  "IDD7": 335,

  "Vdd": 1.8
}
