{
  "NUM_BANKS": 8,
  "NUM_ROWS": 16384,
  "NUM_COLS": 1024,
  "DEVICE_WIDTH": 16,

  "REFRESH_PERIOD": 7800,
  "tCK": 1.5,

  "CL": 10,
  "AL": 0,

  "BL": 8,
  "tRAS": 24,
  "tRCD": 10,
  "tRRD": 4,
  "tRC": 34,
  "tRP": 10,
  "tCCD": 4,
  "tRTP": 5,
  "tWTR": 5,
  "tWR": 10,
  "tRTRS": 1,
  "tRFC": 74,
  "tFAW": 20,
  "tCKE": 4,
  "tXP": 4,

  "tCMD": 1,

  "IDD0": 110,
  "IDD1": 130,
  "IDD2P": 12,
  "IDD2Q": 60,
  "IDD2N": 65,
  "IDD3Pf": 40,
  "IDD3Ps": 40,
  "IDD3N": 62,
  "IDD4W": 220,
  "IDD4R": 200,
  "IDD5": 240,
  "IDD6": 6,
  "IDD6L": 9,
  "IDD7": 490,

  "Vdd": 1.5
}
