{
  "NUM_BANKS": 8,
  "NUM_ROWS": 32768,
  "NUM_COLS": 1024,
  "DEVICE_WIDTH": 8,

  "REFRESH_PERIOD": 7800,
  "tCK": 2.5,

  "CL": 5,
  "AL": 0,

  "BL": 8,
  "tRAS": 15,
  "tRCD": 5,
  "tRRD": 4,
  "tRC": 20,
  "tRP": 5,
  "tCCD": 4,
  "tRTP": 4,
  "tWTR": 4,
  "tWR": 6,
  "tRTRS": 1,
  "tRFC": 64,
  "tFAW": 16,
  "tCKE": 3,
  "tXP": 3,

  "tCMD": 1,

  "IDD0": 100,
  "IDD1": 115,
  "IDD2P": 10,
  "IDD2Q": 50,
  "IDD2N": 50,
  "IDD3Pf": 45,
  "IDD3Ps": 45,
  "IDD3N": 65,
  "IDD4W": 230,
  "IDD4R": 195,
  "IDD5": 275,
  "IDD6": 9,
  "IDD6L": 12,
  "IDD7": 400,

  "Vdd": 1.5
}
